…
lq <- lq_USA %>%
  filter(country == "United States")
```

…

### Exercise 9 - Breakdown by state

``` r
dn %>%
  count(state, sort = TRUE) %>%
  inner_join(states, by = c("state" = "abbreviation"))
```

    ## # A tibble: 51 × 4
    ##    state     n name            area
    ##    <chr> <int> <chr>          <dbl>
    ##  1 CA      403 California   163695.
    ##  2 TX      200 Texas        268596.
    ##  3 FL      140 Florida       65758.
    ##  4 AZ       83 Arizona      113990.
    ##  5 IL       56 Illinois      57914.
    ##  6 NY       56 New York      54555.
    ##  7 WA       49 Washington    71298.
    ##  8 OH       44 Ohio          44826.
    ##  9 MO       42 Missouri      69707.
    ## 10 PA       40 Pennsylvania  46054.
    ## # ℹ 41 more rows

``` r
lq %>%
  count(state, sort = TRUE) %>%
  inner_join(states, by = c("state" = "abbreviation"))
```

    ## # A tibble: 48 × 4
    ##    state     n name          area
    ##    <chr> <int> <chr>        <dbl>
    ##  1 TX      237 Texas      268596.
    ##  2 FL       74 Florida     65758.
    ##  3 CA       56 California 163695.
    ##  4 GA       41 Georgia     59425.
    ##  5 TN       30 Tennessee   42144.
    ##  6 OK       29 Oklahoma    69899.
    ##  7 LA       28 Louisiana   52378.
    ##  8 CO       27 Colorado   104094.
    ##  9 NM       19 New Mexico 121590.
    ## 10 NY       19 New York    54555.
    ## # ℹ 38 more rows
…
